<svg xmlns="http://www.w3.org/2000/svg" xmlns:xlink="http://www.w3.org/1999/xlink" width="104.652" height="104.652" viewBox="0 0 104.652 104.652">
  <defs>
    <linearGradient id="linear-gradient" x1="1" y1="1.441" x2="-0.161" y2="-0.555" gradientUnits="objectBoundingBox">
      <stop offset="0" stop-color="#0897e1"/>
      <stop offset="1" stop-color="#1ce6e8"/>
    </linearGradient>
  </defs>
  <rect id="Rectangle" width="74" height="74" rx="16" transform="translate(52.326 0) rotate(45)" fill="url(#linear-gradient)"/>
</svg>
